{
    "cordova-plugin-whitelist": {
        "source": {
            "type": "registry",
            "id": "cordova-plugin-whitelist@1"
        },
        "is_top_level": true,
        "variables": {}
    },
    "cordova-plugin-camera": {
        "source": {
            "type": "registry",
            "id": "cordova-plugin-camera"
        },
        "is_top_level": true,
        "variables": {}
    },
    "cordova-plugin-inappbrowser": {
        "source": {
            "type": "registry",
            "id": "cordova-plugin-inappbrowser"
        },
        "is_top_level": true,
        "variables": {}
    },
    "cordova-plugin-file-transfer": {
        "source": {
            "type": "git",
            "url": "https://github.com/apache/cordova-plugin-file-transfer.git",
            "subdir": "."
        },
        "is_top_level": true,
        "variables": {}
    },
    "cordova-plugin-file": {
        "source": {
            "type": "registry",
            "id": "cordova-plugin-file"
        },
        "is_top_level": false,
        "variables": {}
    },
    "cordova-plugin-dialogs": {
        "source": {
            "type": "git",
            "url": "https://github.com/apache/cordova-plugin-dialogs.git",
            "subdir": "."
        },
        "is_top_level": true,
        "variables": {}
    },
    "cordova-plugin-websql": {
        "source": {
            "type": "git",
            "url": "https://github.com/MSOpenTech/cordova-plugin-websql.git",
            "subdir": "."
        },
        "is_top_level": true,
        "variables": {}
    },
    "cordova-plugin-vibration": {
        "source": {
            "type": "git",
            "url": "https://github.com/apache/cordova-plugin-vibration.git",
            "subdir": "."
        },
        "is_top_level": true,
        "variables": {}
    },
    "org.apache.cordova.geolocation": {
        "source": {
            "type": "registry",
            "id": "org.apache.cordova.geolocation"
        },
        "is_top_level": true,
        "variables": {}
    },
    "cordova-plugin-geolocation": {
        "source": {
            "type": "registry",
            "id": "cordova-plugin-geolocation"
        },
        "is_top_level": true,
        "variables": {}
    },
    "nl.x-services.plugins.socialsharing": {
        "source": {
            "type": "registry",
            "id": "nl.x-services.plugins.socialsharing"
        },
        "is_top_level": true,
        "variables": {}
    }
}